mips cpu/exp5_td.vcd
$date
	Sun Oct 20 13:39:21 2019
$end
$version
	Icarus Verilog
$end
$timescale
	1ps
$end
$scope module exp5_td $end
$var wire 8 ! data_out [7:0] $end
$var reg 5 " addr [4:0] $end
$var reg 1 # clk $end
$var reg 1 $ cs $end
$var reg 8 % data_in [7:0] $end
$var reg 1 & rd $end
$var reg 1 ' rst $end
$var reg 1 ( wrt $end
$scope module test $end
$var wire 5 ) addr [4:0] $end
$var wire 1 # clk $end
$var wire 1 $ cs $end
$var wire 8 * data_write [7:0] $end
$var wire 1 & rd $end
$var wire 1 ' reset $end
$var wire 1 ( wrt $end
$var wire 8 + data_read [7:0] $end
$var wire 8 , data2 [7:0] $end
$var wire 8 - data1 [7:0] $end
$scope module r0high $end
$var wire 4 . address [3:0] $end
$var wire 1 # clk $end
$var wire 1 / cs $end
$var wire 4 0 data_write [3:0] $end
$var wire 1 & rd $end
$var wire 1 ' rst $end
$var wire 1 ( wrt $end
$var wire 4 1 data_read [3:0] $end
$var reg 4 2 word [3:0] $end
$var integer 32 3 i [31:0] $end
$upscope $end
$scope module r0low $end
$var wire 4 4 address [3:0] $end
$var wire 1 # clk $end
$var wire 1 5 cs $end
$var wire 4 6 data_write [3:0] $end
$var wire 1 & rd $end
$var wire 1 ' rst $end
$var wire 1 ( wrt $end
$var wire 4 7 data_read [3:0] $end
$var reg 4 8 word [3:0] $end
$var integer 32 9 i [31:0] $end
$upscope $end
$scope module r1high $end
$var wire 4 : address [3:0] $end
$var wire 1 # clk $end
$var wire 1 ; cs $end
$var wire 4 < data_write [3:0] $end
$var wire 1 & rd $end
$var wire 1 ' rst $end
$var wire 1 ( wrt $end
$var wire 4 = data_read [3:0] $end
$var reg 4 > word [3:0] $end
$var integer 32 ? i [31:0] $end
$upscope $end
$scope module r1low $end
$var wire 4 @ address [3:0] $end
$var wire 1 # clk $end
$var wire 1 A cs $end
$var wire 4 B data_write [3:0] $end
$var wire 1 & rd $end
$var wire 1 ' rst $end
$var wire 1 ( wrt $end
$var wire 4 C data_read [3:0] $end
$var reg 4 D word [3:0] $end
$var integer 32 E i [31:0] $end
$upscope $end
$upscope $end
$upscope $end
$enddefinitions $end
#0
$dumpvars
bx E
bx D
bx C
bx B
0A
bx @
bx ?
bx >
bx =
bx <
0;
bx :
bx 9
bx 8
bx 7
bx 6
05
bx 4
bx 3
bx 2
bx 1
bx 0
0/
bx .
bx -
bx ,
bx +
bx *
bx )
0(
0'
0&
bx %
0$
0#
bx "
bx !
$end
#1000
1#
#2000
0#
#3000
1#
#4000
0#
#5000
1#
#6000
0#
#7000
1#
#8000
0#
#9000
1#
#10000
0#
#11000
1#
#12000
0#
#13000
1#
#14000
0#
#15000
1#
#16000
0#
#17000
1#
#18000
0#
#19000
1#
#20000
x5
x/
xA
x;
0#
1'
1$
#21000
1#
#22000
0#
#23000
1#
#24000
0#
#25000
1#
#26000
0#
#27000
1#
#28000
0#
#29000
1#
#30000
0#
#31000
1#
#32000
0#
#33000
1#
#34000
0#
#35000
1#
#36000
0#
#37000
1#
#38000
0#
#39000
1#
#40000
05
0/
1A
1;
b100 6
b10 0
b100 B
b10 <
b1011 4
b1011 .
b1011 @
b1011 :
b100100 %
b100100 *
b11011 "
b11011 )
1(
0#
0'
#41000
1#
#42000
0#
#43000
1#
#44000
0#
#45000
1#
#46000
0#
#47000
1#
#48000
0#
#49000
1#
#50000
0#
#51000
1#
#52000
0#
#53000
1#
#54000
0#
#55000
1#
#56000
0#
#57000
1#
#58000
0#
#59000
1#
#60000
15
1/
0A
0;
b110 6
b11 0
b110 B
b11 <
b1010 4
b1010 .
b1010 @
b1010 :
b110110 %
b110110 *
b1010 "
b1010 )
0#
#61000
1#
#62000
0#
#63000
1#
#64000
0#
#65000
1#
#66000
0#
#67000
1#
#68000
0#
#69000
1#
#70000
0#
#71000
1#
#72000
0#
#73000
1#
#74000
0#
#75000
1#
#76000
0#
#77000
1#
#78000
0#
#79000
1#
#80000
05
0/
1A
1;
b1000 6
b110 0
b1000 B
b110 <
b1011 4
b1011 .
b1011 @
b1011 :
b1101000 %
b1101000 *
b11011 "
b11011 )
0#
#81000
1#
#82000
0#
#83000
1#
#84000
0#
#85000
1#
#86000
0#
#87000
1#
#88000
0#
#89000
1#
#90000
0#
#91000
1#
#92000
0#
#93000
1#
#94000
0#
#95000
1#
#96000
0#
#97000
1#
#98000
0#
#99000
1#
#100000
15
1/
0A
0;
b1010 4
b1010 .
b1010 @
b1010 :
b1010 "
b1010 )
0#
1&
0(
#101000
b110110 !
b110110 +
b11 1
b11 2
b110110 -
b110 7
b110 8
1#
#102000
0#
#103000
1#
#104000
0#
#105000
1#
#106000
0#
#107000
1#
#108000
0#
#109000
1#
#110000
0#
#111000
1#
#112000
0#
#113000
1#
#114000
0#
#115000
1#
#116000
0#
#117000
1#
#118000
0#
#119000
1#
#120000
bx !
bx +
b1011 4
b1011 .
b1011 @
b1011 :
05
0/
0#
b11011 "
b11011 )
0$
#121000
1#
#122000
0#
#123000
1#
#124000
0#
#125000
1#
#126000
0#
#127000
1#
#128000
0#
#129000
1#
#130000
0#
#131000
1#
#132000
0#
#133000
1#
#134000
0#
#135000
1#
#136000
0#
#137000
1#
#138000
0#
#139000
1#
#140000
0#
1'
