mips cpu/exp7_td.vcd
$date
	Wed Nov 06 16:07:49 2019
$end
$version
	Icarus Verilog
$end
$timescale
	1ps
$end
$scope module exp7_td $end
$var wire 4 ! out [3:0] $end
$var reg 4 " a1 [3:0] $end
$var reg 4 # a2 [3:0] $end
$var reg 1 $ clk $end
$var reg 4 % in [3:0] $end
$var reg 1 & s1 $end
$var reg 2 ' s2 [1:0] $end
$var reg 1 ( sys_reset $end
$scope module test $end
$var wire 4 ) a [3:0] $end
$var wire 4 * addr1 [3:0] $end
$var wire 4 + addr2 [3:0] $end
$var wire 1 $ clk $end
$var wire 1 ( r $end
$var wire 1 & state1 $end
$var wire 2 , state2 [1:0] $end
$var wire 4 - data3 [3:0] $end
$var wire 4 . data1 [3:0] $end
$var reg 4 / data [3:0] $end
$var reg 4 0 data2 [3:0] $end
$var reg 4 1 out [3:0] $end
$var reg 1 2 read $end
$var reg 1 3 s $end
$var reg 1 4 write $end
$scope module u0 $end
$var wire 4 5 address [3:0] $end
$var wire 1 $ clk $end
$var wire 4 6 data [3:0] $end
$var wire 1 3 en $end
$var wire 1 ( rst $end
$var wire 4 7 rout9 [3:0] $end
$var wire 4 8 rout8 [3:0] $end
$var wire 4 9 rout7 [3:0] $end
$var wire 4 : rout6 [3:0] $end
$var wire 4 ; rout5 [3:0] $end
$var wire 4 < rout4 [3:0] $end
$var wire 4 = rout3 [3:0] $end
$var wire 4 > rout2 [3:0] $end
$var wire 4 ? rout15 [3:0] $end
$var wire 4 @ rout14 [3:0] $end
$var wire 4 A rout13 [3:0] $end
$var wire 4 B rout12 [3:0] $end
$var wire 4 C rout11 [3:0] $end
$var wire 4 D rout10 [3:0] $end
$var wire 4 E rout1 [3:0] $end
$var wire 4 F rout0 [3:0] $end
$var reg 4 G rout [3:0] $end
$scope module l0 $end
$var wire 1 $ clk $end
$var wire 1 ( cr $end
$var wire 4 H data [3:0] $end
$var wire 1 I en $end
$var wire 4 J q [3:0] $end
$scope module d0 $end
$var wire 1 $ clk $end
$var wire 1 K din $end
$var wire 1 I enabler $end
$var wire 1 ( reset $end
$var reg 1 L dout $end
$upscope $end
$scope module d1 $end
$var wire 1 $ clk $end
$var wire 1 M din $end
$var wire 1 I enabler $end
$var wire 1 ( reset $end
$var reg 1 N dout $end
$upscope $end
$scope module d2 $end
$var wire 1 $ clk $end
$var wire 1 O din $end
$var wire 1 I enabler $end
$var wire 1 ( reset $end
$var reg 1 P dout $end
$upscope $end
$scope module d3 $end
$var wire 1 $ clk $end
$var wire 1 Q din $end
$var wire 1 I enabler $end
$var wire 1 ( reset $end
$var reg 1 R dout $end
$upscope $end
$upscope $end
$scope module l1 $end
$var wire 1 $ clk $end
$var wire 1 ( cr $end
$var wire 4 S data [3:0] $end
$var wire 1 T en $end
$var wire 4 U q [3:0] $end
$scope module d0 $end
$var wire 1 $ clk $end
$var wire 1 V din $end
$var wire 1 T enabler $end
$var wire 1 ( reset $end
$var reg 1 W dout $end
$upscope $end
$scope module d1 $end
$var wire 1 $ clk $end
$var wire 1 X din $end
$var wire 1 T enabler $end
$var wire 1 ( reset $end
$var reg 1 Y dout $end
$upscope $end
$scope module d2 $end
$var wire 1 $ clk $end
$var wire 1 Z din $end
$var wire 1 T enabler $end
$var wire 1 ( reset $end
$var reg 1 [ dout $end
$upscope $end
$scope module d3 $end
$var wire 1 $ clk $end
$var wire 1 \ din $end
$var wire 1 T enabler $end
$var wire 1 ( reset $end
$var reg 1 ] dout $end
$upscope $end
$upscope $end
$scope module l10 $end
$var wire 1 $ clk $end
$var wire 1 ( cr $end
$var wire 4 ^ data [3:0] $end
$var wire 1 _ en $end
$var wire 4 ` q [3:0] $end
$scope module d0 $end
$var wire 1 $ clk $end
$var wire 1 a din $end
$var wire 1 _ enabler $end
$var wire 1 ( reset $end
$var reg 1 b dout $end
$upscope $end
$scope module d1 $end
$var wire 1 $ clk $end
$var wire 1 c din $end
$var wire 1 _ enabler $end
$var wire 1 ( reset $end
$var reg 1 d dout $end
$upscope $end
$scope module d2 $end
$var wire 1 $ clk $end
$var wire 1 e din $end
$var wire 1 _ enabler $end
$var wire 1 ( reset $end
$var reg 1 f dout $end
$upscope $end
$scope module d3 $end
$var wire 1 $ clk $end
$var wire 1 g din $end
$var wire 1 _ enabler $end
$var wire 1 ( reset $end
$var reg 1 h dout $end
$upscope $end
$upscope $end
$scope module l11 $end
$var wire 1 $ clk $end
$var wire 1 ( cr $end
$var wire 4 i data [3:0] $end
$var wire 1 j en $end
$var wire 4 k q [3:0] $end
$scope module d0 $end
$var wire 1 $ clk $end
$var wire 1 l din $end
$var wire 1 j enabler $end
$var wire 1 ( reset $end
$var reg 1 m dout $end
$upscope $end
$scope module d1 $end
$var wire 1 $ clk $end
$var wire 1 n din $end
$var wire 1 j enabler $end
$var wire 1 ( reset $end
$var reg 1 o dout $end
$upscope $end
$scope module d2 $end
$var wire 1 $ clk $end
$var wire 1 p din $end
$var wire 1 j enabler $end
$var wire 1 ( reset $end
$var reg 1 q dout $end
$upscope $end
$scope module d3 $end
$var wire 1 $ clk $end
$var wire 1 r din $end
$var wire 1 j enabler $end
$var wire 1 ( reset $end
$var reg 1 s dout $end
$upscope $end
$upscope $end
$scope module l12 $end
$var wire 1 $ clk $end
$var wire 1 ( cr $end
$var wire 4 t data [3:0] $end
$var wire 1 u en $end
$var wire 4 v q [3:0] $end
$scope module d0 $end
$var wire 1 $ clk $end
$var wire 1 w din $end
$var wire 1 u enabler $end
$var wire 1 ( reset $end
$var reg 1 x dout $end
$upscope $end
$scope module d1 $end
$var wire 1 $ clk $end
$var wire 1 y din $end
$var wire 1 u enabler $end
$var wire 1 ( reset $end
$var reg 1 z dout $end
$upscope $end
$scope module d2 $end
$var wire 1 $ clk $end
$var wire 1 { din $end
$var wire 1 u enabler $end
$var wire 1 ( reset $end
$var reg 1 | dout $end
$upscope $end
$scope module d3 $end
$var wire 1 $ clk $end
$var wire 1 } din $end
$var wire 1 u enabler $end
$var wire 1 ( reset $end
$var reg 1 ~ dout $end
$upscope $end
$upscope $end
$scope module l13 $end
$var wire 1 $ clk $end
$var wire 1 ( cr $end
$var wire 4 !" data [3:0] $end
$var wire 1 "" en $end
$var wire 4 #" q [3:0] $end
$scope module d0 $end
$var wire 1 $ clk $end
$var wire 1 $" din $end
$var wire 1 "" enabler $end
$var wire 1 ( reset $end
$var reg 1 %" dout $end
$upscope $end
$scope module d1 $end
$var wire 1 $ clk $end
$var wire 1 &" din $end
$var wire 1 "" enabler $end
$var wire 1 ( reset $end
$var reg 1 '" dout $end
$upscope $end
$scope module d2 $end
$var wire 1 $ clk $end
$var wire 1 (" din $end
$var wire 1 "" enabler $end
$var wire 1 ( reset $end
$var reg 1 )" dout $end
$upscope $end
$scope module d3 $end
$var wire 1 $ clk $end
$var wire 1 *" din $end
$var wire 1 "" enabler $end
$var wire 1 ( reset $end
$var reg 1 +" dout $end
$upscope $end
$upscope $end
$scope module l14 $end
$var wire 1 $ clk $end
$var wire 1 ( cr $end
$var wire 4 ," data [3:0] $end
$var wire 1 -" en $end
$var wire 4 ." q [3:0] $end
$scope module d0 $end
$var wire 1 $ clk $end
$var wire 1 /" din $end
$var wire 1 -" enabler $end
$var wire 1 ( reset $end
$var reg 1 0" dout $end
$upscope $end
$scope module d1 $end
$var wire 1 $ clk $end
$var wire 1 1" din $end
$var wire 1 -" enabler $end
$var wire 1 ( reset $end
$var reg 1 2" dout $end
$upscope $end
$scope module d2 $end
$var wire 1 $ clk $end
$var wire 1 3" din $end
$var wire 1 -" enabler $end
$var wire 1 ( reset $end
$var reg 1 4" dout $end
$upscope $end
$scope module d3 $end
$var wire 1 $ clk $end
$var wire 1 5" din $end
$var wire 1 -" enabler $end
$var wire 1 ( reset $end
$var reg 1 6" dout $end
$upscope $end
$upscope $end
$scope module l15 $end
$var wire 1 $ clk $end
$var wire 1 ( cr $end
$var wire 4 7" data [3:0] $end
$var wire 1 8" en $end
$var wire 4 9" q [3:0] $end
$scope module d0 $end
$var wire 1 $ clk $end
$var wire 1 :" din $end
$var wire 1 8" enabler $end
$var wire 1 ( reset $end
$var reg 1 ;" dout $end
$upscope $end
$scope module d1 $end
$var wire 1 $ clk $end
$var wire 1 <" din $end
$var wire 1 8" enabler $end
$var wire 1 ( reset $end
$var reg 1 =" dout $end
$upscope $end
$scope module d2 $end
$var wire 1 $ clk $end
$var wire 1 >" din $end
$var wire 1 8" enabler $end
$var wire 1 ( reset $end
$var reg 1 ?" dout $end
$upscope $end
$scope module d3 $end
$var wire 1 $ clk $end
$var wire 1 @" din $end
$var wire 1 8" enabler $end
$var wire 1 ( reset $end
$var reg 1 A" dout $end
$upscope $end
$upscope $end
$scope module l2 $end
$var wire 1 $ clk $end
$var wire 1 ( cr $end
$var wire 4 B" data [3:0] $end
$var wire 1 C" en $end
$var wire 4 D" q [3:0] $end
$scope module d0 $end
$var wire 1 $ clk $end
$var wire 1 E" din $end
$var wire 1 C" enabler $end
$var wire 1 ( reset $end
$var reg 1 F" dout $end
$upscope $end
$scope module d1 $end
$var wire 1 $ clk $end
$var wire 1 G" din $end
$var wire 1 C" enabler $end
$var wire 1 ( reset $end
$var reg 1 H" dout $end
$upscope $end
$scope module d2 $end
$var wire 1 $ clk $end
$var wire 1 I" din $end
$var wire 1 C" enabler $end
$var wire 1 ( reset $end
$var reg 1 J" dout $end
$upscope $end
$scope module d3 $end
$var wire 1 $ clk $end
$var wire 1 K" din $end
$var wire 1 C" enabler $end
$var wire 1 ( reset $end
$var reg 1 L" dout $end
$upscope $end
$upscope $end
$scope module l3 $end
$var wire 1 $ clk $end
$var wire 1 ( cr $end
$var wire 4 M" data [3:0] $end
$var wire 1 N" en $end
$var wire 4 O" q [3:0] $end
$scope module d0 $end
$var wire 1 $ clk $end
$var wire 1 P" din $end
$var wire 1 N" enabler $end
$var wire 1 ( reset $end
$var reg 1 Q" dout $end
$upscope $end
$scope module d1 $end
$var wire 1 $ clk $end
$var wire 1 R" din $end
$var wire 1 N" enabler $end
$var wire 1 ( reset $end
$var reg 1 S" dout $end
$upscope $end
$scope module d2 $end
$var wire 1 $ clk $end
$var wire 1 T" din $end
$var wire 1 N" enabler $end
$var wire 1 ( reset $end
$var reg 1 U" dout $end
$upscope $end
$scope module d3 $end
$var wire 1 $ clk $end
$var wire 1 V" din $end
$var wire 1 N" enabler $end
$var wire 1 ( reset $end
$var reg 1 W" dout $end
$upscope $end
$upscope $end
$scope module l4 $end
$var wire 1 $ clk $end
$var wire 1 ( cr $end
$var wire 4 X" data [3:0] $end
$var wire 1 Y" en $end
$var wire 4 Z" q [3:0] $end
$scope module d0 $end
$var wire 1 $ clk $end
$var wire 1 [" din $end
$var wire 1 Y" enabler $end
$var wire 1 ( reset $end
$var reg 1 \" dout $end
$upscope $end
$scope module d1 $end
$var wire 1 $ clk $end
$var wire 1 ]" din $end
$var wire 1 Y" enabler $end
$var wire 1 ( reset $end
$var reg 1 ^" dout $end
$upscope $end
$scope module d2 $end
$var wire 1 $ clk $end
$var wire 1 _" din $end
$var wire 1 Y" enabler $end
$var wire 1 ( reset $end
$var reg 1 `" dout $end
$upscope $end
$scope module d3 $end
$var wire 1 $ clk $end
$var wire 1 a" din $end
$var wire 1 Y" enabler $end
$var wire 1 ( reset $end
$var reg 1 b" dout $end
$upscope $end
$upscope $end
$scope module l5 $end
$var wire 1 $ clk $end
$var wire 1 ( cr $end
$var wire 4 c" data [3:0] $end
$var wire 1 d" en $end
$var wire 4 e" q [3:0] $end
$scope module d0 $end
$var wire 1 $ clk $end
$var wire 1 f" din $end
$var wire 1 d" enabler $end
$var wire 1 ( reset $end
$var reg 1 g" dout $end
$upscope $end
$scope module d1 $end
$var wire 1 $ clk $end
$var wire 1 h" din $end
$var wire 1 d" enabler $end
$var wire 1 ( reset $end
$var reg 1 i" dout $end
$upscope $end
$scope module d2 $end
$var wire 1 $ clk $end
$var wire 1 j" din $end
$var wire 1 d" enabler $end
$var wire 1 ( reset $end
$var reg 1 k" dout $end
$upscope $end
$scope module d3 $end
$var wire 1 $ clk $end
$var wire 1 l" din $end
$var wire 1 d" enabler $end
$var wire 1 ( reset $end
$var reg 1 m" dout $end
$upscope $end
$upscope $end
$scope module l6 $end
$var wire 1 $ clk $end
$var wire 1 ( cr $end
$var wire 4 n" data [3:0] $end
$var wire 1 o" en $end
$var wire 4 p" q [3:0] $end
$scope module d0 $end
$var wire 1 $ clk $end
$var wire 1 q" din $end
$var wire 1 o" enabler $end
$var wire 1 ( reset $end
$var reg 1 r" dout $end
$upscope $end
$scope module d1 $end
$var wire 1 $ clk $end
$var wire 1 s" din $end
$var wire 1 o" enabler $end
$var wire 1 ( reset $end
$var reg 1 t" dout $end
$upscope $end
$scope module d2 $end
$var wire 1 $ clk $end
$var wire 1 u" din $end
$var wire 1 o" enabler $end
$var wire 1 ( reset $end
$var reg 1 v" dout $end
$upscope $end
$scope module d3 $end
$var wire 1 $ clk $end
$var wire 1 w" din $end
$var wire 1 o" enabler $end
$var wire 1 ( reset $end
$var reg 1 x" dout $end
$upscope $end
$upscope $end
$scope module l7 $end
$var wire 1 $ clk $end
$var wire 1 ( cr $end
$var wire 4 y" data [3:0] $end
$var wire 1 z" en $end
$var wire 4 {" q [3:0] $end
$scope module d0 $end
$var wire 1 $ clk $end
$var wire 1 |" din $end
$var wire 1 z" enabler $end
$var wire 1 ( reset $end
$var reg 1 }" dout $end
$upscope $end
$scope module d1 $end
$var wire 1 $ clk $end
$var wire 1 ~" din $end
$var wire 1 z" enabler $end
$var wire 1 ( reset $end
$var reg 1 !# dout $end
$upscope $end
$scope module d2 $end
$var wire 1 $ clk $end
$var wire 1 "# din $end
$var wire 1 z" enabler $end
$var wire 1 ( reset $end
$var reg 1 ## dout $end
$upscope $end
$scope module d3 $end
$var wire 1 $ clk $end
$var wire 1 $# din $end
$var wire 1 z" enabler $end
$var wire 1 ( reset $end
$var reg 1 %# dout $end
$upscope $end
$upscope $end
$scope module l8 $end
$var wire 1 $ clk $end
$var wire 1 ( cr $end
$var wire 4 &# data [3:0] $end
$var wire 1 '# en $end
$var wire 4 (# q [3:0] $end
$scope module d0 $end
$var wire 1 $ clk $end
$var wire 1 )# din $end
$var wire 1 '# enabler $end
$var wire 1 ( reset $end
$var reg 1 *# dout $end
$upscope $end
$scope module d1 $end
$var wire 1 $ clk $end
$var wire 1 +# din $end
$var wire 1 '# enabler $end
$var wire 1 ( reset $end
$var reg 1 ,# dout $end
$upscope $end
$scope module d2 $end
$var wire 1 $ clk $end
$var wire 1 -# din $end
$var wire 1 '# enabler $end
$var wire 1 ( reset $end
$var reg 1 .# dout $end
$upscope $end
$scope module d3 $end
$var wire 1 $ clk $end
$var wire 1 /# din $end
$var wire 1 '# enabler $end
$var wire 1 ( reset $end
$var reg 1 0# dout $end
$upscope $end
$upscope $end
$scope module l9 $end
$var wire 1 $ clk $end
$var wire 1 ( cr $end
$var wire 4 1# data [3:0] $end
$var wire 1 2# en $end
$var wire 4 3# q [3:0] $end
$scope module d0 $end
$var wire 1 $ clk $end
$var wire 1 4# din $end
$var wire 1 2# enabler $end
$var wire 1 ( reset $end
$var reg 1 5# dout $end
$upscope $end
$scope module d1 $end
$var wire 1 $ clk $end
$var wire 1 6# din $end
$var wire 1 2# enabler $end
$var wire 1 ( reset $end
$var reg 1 7# dout $end
$upscope $end
$scope module d2 $end
$var wire 1 $ clk $end
$var wire 1 8# din $end
$var wire 1 2# enabler $end
$var wire 1 ( reset $end
$var reg 1 9# dout $end
$upscope $end
$scope module d3 $end
$var wire 1 $ clk $end
$var wire 1 :# din $end
$var wire 1 2# enabler $end
$var wire 1 ( reset $end
$var reg 1 ;# dout $end
$upscope $end
$upscope $end
$upscope $end
$scope module u1 $end
$var wire 4 <# address [3:0] $end
$var wire 1 $ clk $end
$var wire 1 =# cs $end
$var wire 4 ># data_read [3:0] $end
$var wire 4 ?# data_write [3:0] $end
$var wire 1 2 rd $end
$var wire 1 ( rst $end
$var wire 1 4 wrt $end
$var reg 4 @# word [3:0] $end
$var integer 32 A# i [31:0] $end
$upscope $end
$upscope $end
$upscope $end
$enddefinitions $end
#0
$dumpvars
bx A#
bx @#
bx ?#
bx >#
1=#
bx <#
x;#
x:#
x9#
x8#
x7#
x6#
x5#
x4#
bx 3#
x2#
bx 1#
x0#
x/#
x.#
x-#
x,#
x+#
x*#
x)#
bx (#
x'#
bx &#
x%#
x$#
x##
x"#
x!#
x~"
x}"
x|"
bx {"
xz"
bx y"
xx"
xw"
xv"
xu"
xt"
xs"
xr"
xq"
bx p"
xo"
bx n"
xm"
xl"
xk"
xj"
xi"
xh"
xg"
xf"
bx e"
xd"
bx c"
xb"
xa"
x`"
x_"
x^"
x]"
x\"
x["
bx Z"
xY"
bx X"
xW"
xV"
xU"
xT"
xS"
xR"
xQ"
xP"
bx O"
xN"
bx M"
xL"
xK"
xJ"
xI"
xH"
xG"
xF"
xE"
bx D"
xC"
bx B"
xA"
x@"
x?"
x>"
x="
x<"
x;"
x:"
bx 9"
x8"
bx 7"
x6"
x5"
x4"
x3"
x2"
x1"
x0"
x/"
bx ."
x-"
bx ,"
x+"
x*"
x)"
x("
x'"
x&"
x%"
x$"
bx #"
x""
bx !"
x~
x}
x|
x{
xz
xy
xx
xw
bx v
xu
bx t
xs
xr
xq
xp
xo
xn
xm
xl
bx k
xj
bx i
xh
xg
xf
xe
xd
xc
xb
xa
bx `
x_
bx ^
x]
x\
x[
xZ
xY
xX
xW
xV
bx U
xT
bx S
xR
xQ
xP
xO
xN
xM
xL
xK
bx J
xI
bx H
bx G
bx F
bx E
bx D
bx C
bx B
bx A
bx @
bx ?
bx >
bx =
bx <
bx ;
bx :
bx 9
bx 8
bx 7
bx 6
bx 5
x4
x3
x2
bx 1
bx 0
bx /
bx .
bx -
bx ,
bx +
bx *
bx )
x(
bx '
x&
bx %
0$
bx #
bx "
bx !
$end
#1000
bz .
bz >#
bz @#
1$
#2000
0$
#3000
1$
#4000
0$
#5000
1$
#6000
0$
#7000
1$
#8000
0$
#9000
1$
#10000
b10000 A#
0$
1(
#11000
0A"
0?"
0="
b0 ?
b0 9"
0;"
06"
04"
02"
b0 @
b0 ."
00"
0+"
0)"
0'"
b0 A
b0 #"
0%"
0~
0|
0z
b0 B
b0 v
0x
0s
0q
0o
b0 C
b0 k
0m
0h
0f
0d
b0 D
b0 `
0b
0;#
09#
07#
b0 7
b0 3#
05#
00#
0.#
0,#
b0 8
b0 (#
0*#
0%#
0##
0!#
b0 9
b0 {"
0}"
0x"
0v"
0t"
b0 :
b0 p"
0r"
0m"
0k"
0i"
b0 ;
b0 e"
0g"
0b"
0`"
0^"
b0 <
b0 Z"
0\"
0W"
0U"
0S"
b0 =
b0 O"
0Q"
0L"
0J"
0H"
b0 >
b0 D"
0F"
0]
0[
0Y
b0 E
b0 U
0W
0R
0P
0N
b0 F
b0 J
0L
b10000 A#
1$
#12000
0$
#13000
b10000 A#
1$
#14000
0$
#15000
b10000 A#
1$
#16000
0$
#17000
b10000 A#
1$
#18000
0$
#19000
b10000 A#
1$
#20000
0$
0(
#21000
xL
xN
xP
bx F
bx J
xR
xW
xY
x[
bx E
bx U
x]
xF"
xH"
xJ"
bx >
bx D"
xL"
xQ"
xS"
xU"
bx =
bx O"
xW"
x\"
x^"
x`"
bx <
bx Z"
xb"
xg"
xi"
xk"
bx ;
bx e"
xm"
xr"
xt"
xv"
bx :
bx p"
xx"
x}"
x!#
x##
bx 9
bx {"
x%#
x*#
x,#
x.#
bx 8
bx (#
x0#
x5#
x7#
x9#
bx 7
bx 3#
x;#
xb
xd
xf
bx D
bx `
xh
xm
xo
xq
bx C
bx k
xs
xx
xz
x|
bx B
bx v
x~
x%"
x'"
x)"
bx A
bx #"
x+"
x0"
x2"
x4"
bx @
bx ."
x6"
x;"
x="
x?"
bx ?
bx 9"
xA"
1$
#22000
0$
#23000
1$
#24000
0$
#25000
1$
#26000
0$
#27000
1$
#28000
0$
#29000
1$
#30000
1K
1M
1O
1Q
1V
1X
1Z
1\
1a
1c
1e
1g
1l
1n
1p
1r
1w
1y
1{
1}
1$"
1&"
1("
1*"
1/"
11"
13"
15"
1:"
1<"
1>"
1@"
1E"
1G"
1I"
1K"
1P"
1R"
1T"
1V"
1["
1]"
1_"
1a"
1f"
1h"
1j"
1l"
1q"
1s"
1u"
1w"
1|"
1~"
1"#
1$#
1)#
1+#
1-#
1/#
14#
16#
18#
1:#
1d"
b1111 /
b1111 6
b1111 H
b1111 S
b1111 ^
b1111 i
b1111 t
b1111 !"
b1111 ,"
b1111 7"
b1111 B"
b1111 M"
b1111 X"
b1111 c"
b1111 n"
b1111 y"
b1111 &#
b1111 1#
b1111 !
b1111 1
02
13
04
b0 '
b0 ,
1&
b1111 %
b1111 )
0T
02#
0""
0I
0C"
0N"
0Y"
0o"
0z"
0'#
0_
0j
0u
0-"
08"
0$
b101 "
b101 *
b101 5
#31000
1m"
1k"
1i"
b1111 ;
b1111 e"
1g"
1$
#32000
0$
#33000
b1111 -
b1111 G
1$
#34000
0$
#35000
1$
#36000
0$
#37000
1$
#38000
0$
#39000
1$
#40000
0d"
b1010 !
b1010 1
b1010 0
b1010 ?#
03
14
b10 '
b10 ,
0&
b1010 %
b1010 )
0$
b1010 #
b1010 +
b1010 <#
#41000
1$
#42000
0$
#43000
1$
#44000
0$
#45000
1$
#46000
0$
#47000
1$
#48000
0$
#49000
1$
#50000
04
b1111 !
b1111 1
b0 '
b0 ,
b0 %
b0 )
0$
#51000
1$
#52000
0$
#53000
1$
#54000
0$
#55000
1$
#56000
0$
#57000
1$
#58000
0$
#59000
1$
#60000
12
bz !
bz 1
b1 '
b1 ,
0$
#61000
b1010 !
b1010 1
b1010 .
b1010 >#
b1010 @#
1$
#62000
0$
#63000
1$
#64000
0$
#65000
1$
#66000
0$
#67000
1$
#68000
0$
#69000
1$
#70000
0K
0O
0V
0Z
0a
0e
0l
0p
0w
0{
0$"
0("
0/"
03"
0:"
0>"
0E"
0I"
0P"
0T"
0["
0_"
0f"
0j"
0q"
0u"
0|"
0"#
0)#
0-#
04#
08#
1T
b1010 /
b1010 6
b1010 H
b1010 S
b1010 ^
b1010 i
b1010 t
b1010 !"
b1010 ,"
b1010 7"
b1010 B"
b1010 M"
b1010 X"
b1010 c"
b1010 n"
b1010 y"
b1010 &#
b1010 1#
13
b1 "
b1 *
b1 5
1&
0$
#71000
1]
0[
1Y
b1010 E
b1010 U
0W
bx -
bx G
1$
#72000
0$
#73000
b1010 -
b1010 G
1$
#74000
0$
#75000
1$
#76000
0$
#77000
1$
#78000
0$
#79000
1$
#80000
03
02
14
0T
0d"
b1 #
b1 +
b1 <#
b101 "
b101 *
b101 5
b10 '
b10 ,
0$
#81000
b1111 0
b1111 ?#
b1111 !
b1111 1
03
b1111 -
b1111 G
1$
#82000
0$
#83000
1$
#84000
0$
#85000
1$
#86000
0$
#87000
1$
#88000
0$
#89000
1$
#90000
04
b1 "
b1 *
b1 5
b0 '
b0 ,
0&
0$
#91000
b1010 !
b1010 1
b1010 -
b1010 G
bz .
bz >#
bz @#
1$
#92000
0$
#93000
1$
#94000
0$
#95000
1$
#96000
0$
#97000
1$
#98000
0$
#99000
1$
#100000
12
bz !
bz 1
b1 '
b1 ,
0$
#101000
b1111 !
b1111 1
b1111 .
b1111 >#
b1111 @#
1$
